…
Na impressão no console, os tibbles apresentam apenas as dez primeiras linhas e todas as colunas que cabem na tela, tornando mais fácil o trabalho com grandes volumes de dados. Além disso, cada coluna apresenta o seu tipo, algo semelhante ao apresentado quando utilizamos a função str().

Veja um exemplo a seguir da impressão de um tibble no console.

library(nycflights13)
flights #Tais dados fazem parte do pacote nycflights13
## # A tibble: 336,776 x 19
##     year month   day dep_time sched_dep_time dep_delay arr_time
##    <int> <int> <int>    <int>          <int>     <dbl>    <int>
##  1  2013     1     1      517            515      2.00      830
##  2  2013     1     1      533            529      4.00      850
##  3  2013     1     1      542            540      2.00      923
##  4  2013     1     1      544            545     -1.00     1004
##  5  2013     1     1      554            600     -6.00      812
##  6  2013     1     1      554            558     -4.00      740
##  7  2013     1     1      555            600     -5.00      913
##  8  2013     1     1      557            600     -3.00      709
##  9  2013     1     1      557            600     -3.00      838
## 10  2013     1     1      558            600     -2.00      753
## # ... with 336,766 more rows, and 12 more variables: sched_arr_time <int>,
## #   arr_delay <dbl>, carrier <chr>, flight <int>, tailnum <chr>,
## #   origin <chr>, dest <chr>, air_time <dbl>, distance <dbl>, hour <dbl>,
## #   minute <dbl>, time_hour <dttm>
A segunda diferença, não menos importante, é a forma de indexação. Para indexar um tibble devemos utilizar o nome completo da variável que desejamos. Caso contrário, ocorrerá um erro.

NOTA: Vimos que, nos data frames, podemos indexar uma variável usando $ e digitando apenas a primeira letra da variável que desejamos.

Ainda sobre a indexação, sempre que indexarmos um tibble usando [, o resultado será outro tibble. Usando [[ o resultados será um vetor.

flights[10]
## # A tibble: 336,776 x 1
##    carrier
##    <chr>  
##  1 UA     
##  2 UA     
##  3 AA     
##  4 B6     
##  5 DL     
##  6 UA     
##  7 B6     
##  8 EV     
##  9 B6     
## 10 AA     
## # ... with 336,766 more rows
…
Ocorre que, em certas ocasiões, não queremos importar todo o arquivo, mas apenas parte dele. A função read_delim() permite informar a quantidade de observações que desejamos importar, provendo uma melhor performance na leitura dos dados. No exemplo que iremos apresentar, vamos importar apenas as primeiras 200 linhas de dados. Por fim, iremos transformar as variáveis sex e frontal em fator já na importação dos dados e atribuir a um objeto de nome us_acidentes. Segue o exemplo.

us_acidentes <- read_delim("us_dados_acidentes.txt", delim = "&", n_max = 200,
                            col_types = cols(
                                        frontal = col_factor(c(1, 0)),
                                        sex = col_factor(c("f", "m"))
                            )
)
us_acidentes
## # A tibble: 200 x 15
##    dvcat weight dead  airbag seatbelt frontal sex   ageOFocc yearacc
##    <chr>  <dbl> <chr> <chr>  <chr>    <fct>   <fct>    <int>   <int>
##  1 25-39   25.1 alive none   belted   1       f           26    1997
##  2 10-24   25.1 alive airbag belted   1       f           72    1997
##  3 10-24   32.4 alive none   none     1       f           69    1997
##  4 25-39  495   alive airbag belted   1       f           53    1997
##  5 25-39   25.1 alive none   belted   1       f           32    1997
##  6 40-54   25.1 alive none   belted   1       f           22    1997
##  7 55+     27.1 alive none   belted   1       m           22    1997
##  8 55+     27.1 dead  none   none     1       m           32    1997
##  9 10-24  813   alive none   belted   0       m           40    1997
## 10 10-24  813   alive none   belted   1       f           18    1997
## # ... with 190 more rows, and 6 more variables: yearVeh <int>,
## #   abcat <chr>, occRole <chr>, deploy <int>, injSeverity <int>,
## #   caseid <chr>
…
15.1.2 Selecionando variáveis
Para a extração de variáveis (colunas) de nossos dados , utilizamos a função select(), também do pacote dplyr.

Vamos aplicar exemplos utilizando as 200 primeiras observações do arquivo “us_dados_acidentes.txt”, visto anteriormente. Segue o código para importação dos dados.

us_acidentes <- read_delim("us_dados_acidentes.txt", delim = "&", n_max = 200,
                            col_types = cols(
                                        frontal = col_factor(c(1, 0)),
                                        sex = col_factor(c("f", "m"))
                            )
)
Vamos selecionar as variáveis dead, airbag, frontal e ageOFocc. A forma é a seguinte:

select(us_acidentes, dead, airbag, frontal, ageOFocc)
## # A tibble: 200 x 4
##    dead  airbag frontal ageOFocc
##    <chr> <chr>  <fct>      <int>
##  1 alive none   1             26
##  2 alive airbag 1             72
##  3 alive none   1             69
##  4 alive airbag 1             53
##  5 alive none   1             32
##  6 alive none   1             22
##  7 alive none   1             22
##  8 dead  none   1             32
##  9 alive none   0             40
## 10 alive none   1             18
## # ... with 190 more rows
Como podemos ver, todas as observações das quatro variáveis que informamos foram corretamente selecionadas.

No entanto, podemos também estabelecer critérios de acordo com as características dos nomes das variáveis. Por exemplo, vamos selecionar todas as variáveis do objeto us_acidentes que contenham year em seu nome. Para isso, utilizaremos a função contains() como critério de seleção.

select(us_acidentes, contains("year"))
## # A tibble: 200 x 2
##    yearacc yearVeh
##      <int>   <int>
##  1    1997    1990
##  2    1997    1995
##  3    1997    1988
##  4    1997    1995
##  5    1997    1988
##  6    1997    1985
##  7    1997    1984
##  8    1997    1987
##  9    1997    1984
## 10    1997    1987
## # ... with 190 more rows
Da mesma forma, podemos selecionar todas as variáveis que terminem com “t” utilizando a função ends_with(). Segue exemplo.

select(us_acidentes, ends_with("t"))
## # A tibble: 200 x 4
##    dvcat weight seatbelt abcat  
##    <chr>  <dbl> <chr>    <chr>  
##  1 25-39   25.1 belted   unavail
##  2 10-24   25.1 belted   deploy 
##  3 10-24   32.4 none     unavail
##  4 25-39  495   belted   deploy 
##  5 25-39   25.1 belted   unavail
##  6 40-54   25.1 belted   unavail
##  7 55+     27.1 belted   unavail
##  8 55+     27.1 none     unavail
##  9 10-24  813   belted   unavail
## 10 10-24  813   belted   unavail
## # ... with 190 more rows
Podemos facilmente passar uma sequência para informar um intervalo de variáveis, por exemplo. Vamos selecionar as variáveis da coluna 3 até a coluna 7. Basta fazermos o seguinte:

select(us_acidentes, c(3:7, 11))
## # A tibble: 200 x 6
##    dead  airbag seatbelt frontal sex   abcat  
##    <chr> <chr>  <chr>    <fct>   <fct> <chr>  
##  1 alive none   belted   1       f     unavail
##  2 alive airbag belted   1       f     deploy 
##  3 alive none   none     1       f     unavail
##  4 alive airbag belted   1       f     deploy 
##  5 alive none   belted   1       f     unavail
##  6 alive none   belted   1       f     unavail
##  7 alive none   belted   1       m     unavail
##  8 dead  none   none     1       m     unavail
##  9 alive none   belted   0       m     unavail
## 10 alive none   belted   1       f     unavail
## # ... with 190 more rows
Como exercício, use a função select() para selecionar as colunas de 4 a 8 e a coluna 12, do objeto us_acidentes.

Para mais possibilidades de utilização da função select() leia a ajuda da mesma.

15.1.3 Modificando dados
Muitas vezes queremos adicionar uma nova variável, que pode ser uma operação envolvendo outras variáveis já existentes. Para realizar essa tarefa, utilizamos a função mutate(). Vamos criar uma nova variável de nome dif que será a diferenca entre yearacc e yearVeh.

mutate(us_acidentes, dif = (yearacc - yearVeh))
## # A tibble: 200 x 16
##    dvcat weight dead  airbag seatbelt frontal sex   ageOFocc yearacc
##    <chr>  <dbl> <chr> <chr>  <chr>    <fct>   <fct>    <int>   <int>
##  1 25-39   25.1 alive none   belted   1       f           26    1997
##  2 10-24   25.1 alive airbag belted   1       f           72    1997
##  3 10-24   32.4 alive none   none     1       f           69    1997
##  4 25-39  495   alive airbag belted   1       f           53    1997
##  5 25-39   25.1 alive none   belted   1       f           32    1997
##  6 40-54   25.1 alive none   belted   1       f           22    1997
##  7 55+     27.1 alive none   belted   1       m           22    1997
##  8 55+     27.1 dead  none   none     1       m           32    1997
##  9 10-24  813   alive none   belted   0       m           40    1997
## 10 10-24  813   alive none   belted   1       f           18    1997
## # ... with 190 more rows, and 7 more variables: yearVeh <int>,
## #   abcat <chr>, occRole <chr>, deploy <int>, injSeverity <int>,
## #   caseid <chr>, dif <int>
Podemos ver que agora temos 16 variáveis, uma vez que a variável dif ocupa a décima sexta coluna do nosso conjunto de dados.

Podemos aplicar também uma função a todas variáveis de um determinado tipo. Como exemplo, vamos aplicar a raiz quadrada em todas as variáveis do tipo integer do nosso objeto.

mutate_if(us_acidentes, is.integer, funs(sqrt(.)))
## # A tibble: 200 x 15
##    dvcat weight dead  airbag seatbelt frontal sex   ageOFocc yearacc
##    <chr>  <dbl> <chr> <chr>  <chr>    <fct>   <fct>    <dbl>   <dbl>
##  1 25-39   25.1 alive none   belted   1       f         5.10    44.7
##  2 10-24   25.1 alive airbag belted   1       f         8.49    44.7
##  3 10-24   32.4 alive none   none     1       f         8.31    44.7
##  4 25-39  495   alive airbag belted   1       f         7.28    44.7
##  5 25-39   25.1 alive none   belted   1       f         5.66    44.7
##  6 40-54   25.1 alive none   belted   1       f         4.69    44.7
##  7 55+     27.1 alive none   belted   1       m         4.69    44.7
##  8 55+     27.1 dead  none   none     1       m         5.66    44.7
##  9 10-24  813   alive none   belted   0       m         6.32    44.7
## 10 10-24  813   alive none   belted   1       f         4.24    44.7
## # ... with 190 more rows, and 6 more variables: yearVeh <dbl>,
## #   abcat <chr>, occRole <chr>, deploy <dbl>, injSeverity <dbl>,
## #   caseid <chr>
…
